﻿  Quelle.cpp
c:\users\hawken\source\repos\project1\project1\quelle.cpp(30): warning C4477: "printf": Die Formatzeichenfolge "%d" erfordert ein Argument vom Typ "int", das variadic-Argument "3" weist aber den Typ "std::chrono::seconds" auf.
  Code wird generiert.
  1 of 28 functions ( 3.6%) were compiled, the rest were copied from previous compilation.
    0 functions were new in current compilation
    0 functions had inline decision re-evaluated but remain unchanged
  Codegenerierung ist abgeschlossen.
  Project1.vcxproj -> C:\Users\Hawken\source\repos\Project1\x64\Release\Project1.exe
